numéro de compte,code agence,id client,type de compte,solde bancaire,options de découvert
00000000001,123,AA000000,Compte courrant,2000,autorisé
00000000002,001,ZZ999999,Compte courrant,3000,autorisé
00000000003,099,ZZ999999,Livret A,20000,reffusé
